visualization with ggplot2 and beyond
…
`summarise()` has grouped output by 'species', 'sasap_region'. You can override
using the `.groups` argument.

#1484   

annual_esc

# A tibble: 1,484 × 4
# Groups:   species, sasap_region [39]
   species sasap_region                           year escapement
   <chr>   <chr>                                 <dbl>      <dbl>
 1 Chinook Alaska Peninsula and Aleutian Islands  1974       1092
 2 Chinook Alaska Peninsula and Aleutian Islands  1975       1917
 3 Chinook Alaska Peninsula and Aleutian Islands  1976       3045
 4 Chinook Alaska Peninsula and Aleutian Islands  1977       4844
 5 Chinook Alaska Peninsula and Aleutian Islands  1978       3901
 6 Chinook Alaska Peninsula and Aleutian Islands  1979      10463
 7 Chinook Alaska Peninsula and Aleutian Islands  1980       4506
 8 Chinook Alaska Peninsula and Aleutian Islands  1981       5046
 9 Chinook Alaska Peninsula and Aleutian Islands  1982       6503
10 Chinook Alaska Peninsula and Aleutian Islands  1983      11589
# ℹ 1,474 more rows
…
